<svg width="67" height="67" viewBox="0 0 67 67" fill="none" xmlns="http://www.w3.org/2000/svg">
<path d="M10.0622 44.6327C9.52802 45.4755 9.00367 46.3244 8.48925 47.1793C8.04168 47.9278 8.26572 48.9014 9.01374 49.3511L19.2676 55.6429C20.0161 56.092 20.9876 55.8664 21.4373 55.1184C21.9186 54.2592 22.4176 53.41 22.9338 52.5713C26.9769 45.9068 31.0923 46.6553 38.4263 50.176L48.6064 54.9671C49.4287 55.3424 50.328 54.9671 50.7012 54.2186L55.5672 43.2111C55.9399 42.461 55.5672 41.4889 54.8166 41.1136C52.6469 40.1395 48.3823 38.1169 44.6397 36.2456C30.7944 29.579 19.0415 30.0286 10.0622 44.6327Z" fill="url(#paint0_linear_62_8182)"/>
<path d="M56.0152 19.6194C56.5494 18.7767 57.0737 17.9278 57.5882 17.0729C58.0373 16.3243 57.8117 15.3507 57.0637 14.9011L46.8098 8.60929C46.0613 8.16017 45.0898 8.38577 44.6401 9.13378C44.1595 9.9934 43.6606 10.8426 43.1436 11.6809C39.1005 18.3454 34.9851 17.5968 27.6511 14.0761L17.471 9.28503C16.6487 8.90974 15.7515 9.28504 15.3762 10.0336L10.5123 21.0411C10.1375 21.7912 10.5123 22.7653 11.2608 23.1385C13.4305 24.1127 17.6971 26.1352 21.4377 28.0066C35.2856 34.5988 47.0359 34.223 56.0152 19.6194Z" fill="url(#paint1_linear_62_8182)"/>
<defs>
<linearGradient id="paint0_linear_62_8182" x1="55.3209" y1="58.9018" x2="24.3493" y2="41.1188" gradientUnits="userSpaceOnUse">
<stop stop-color="#0052CC"/>
<stop offset="0.918" stop-color="#2380FB"/>
<stop offset="1" stop-color="#2684FF"/>
</linearGradient>
<linearGradient id="paint1_linear_62_8182" x1="10.7565" y1="5.3297" x2="41.7281" y2="23.1148" gradientUnits="userSpaceOnUse">
<stop stop-color="#0052CC"/>
<stop offset="0.918" stop-color="#2380FB"/>
<stop offset="1" stop-color="#2684FF"/>
</linearGradient>
</defs>
</svg>
