<svg width="11" height="8" viewBox="0 0 11 8" fill="none" xmlns="http://www.w3.org/2000/svg">
<path fill-rule="evenodd" clip-rule="evenodd" d="M0 8H11V0H0V8ZM0.647058 0.820926V0.615378H10.3529V0.82092L5.5 4.82339L0.647058 0.82092V0.820926ZM10.3529 1.63569V6.81477L8.34124 4.42338L7.83524 4.80738L10.0029 7.38462H0.997116L3.16476 4.80738L2.65876 4.42338L0.647058 6.81477V1.63569L5.5 5.63816L10.3529 1.63569H10.3529Z" fill="#007BC7"/>
</svg>
